<svg xmlns="http://www.w3.org/2000/svg" width="24" height="24" viewBox="0 0 24 24" fill="none"
     stroke="currentColor" stroke-width="2" stroke-linecap="round" stroke-linejoin="round"
     class="feather feather-arrow-up-left">
    <line x1="17" y1="17" x2="7" y2="7"></line>
    <polyline points="7 17 7 7 17 7"></polyline>
</svg>